{"default": {
  "src": "site/service_unavailable.html",
  "body": {"needMasterPage": false, "src": "site/service_unavailable.html"}
  },
 "/401": {"code": 401, "headers": {"www-authenticate": "Basic realm=\"testRealm\""}},
 "fallback1": {"fallback": "default", "body": {"needMasterPage": false}},
 "fallback0": {"fallback": "fallback1", "headers": {"x-powered-by": "Nodejs"}},
 "/fbk": {"fallback": "fallback0", "code": 200},
 "/ls": {"body": {"src": "dir", "srcs": [".", "dir2"]}},
 "/ls/a": {},
 "/delegates": {"delegate": {"*": {"handler": "dummyDelegate"}}},
 "/folder": {
  "src": "site",
  "body": {},
  "delegate": {
   "GET": {
    "src": "site",
    "handler": "http-handlers/FS-resource"
    }
   }
  },
 "/download": {
  "delegate": {"GET": {"handler": "node_modules/serverSideDownloader"}},
  "body": {"needMasterPage": false, "src": "site"}
  },
 "/favicon.ico": {"code": 204, "headers": {"content-type": "image/ico"}
  },
 "/": {
  "srcs": ["site", "site/home.html"],
  "body": {"src": "site/home.html"}
  },
 "/main": {"body": {"src": "site/main.html"}
  },
 "/lvled": {"body": {"src": "site/lvled.html"}},
 "/form": {
  "body": {
   "needMasterPage": false,
   "src": "site/form.html"
   }
  },
 "/here": {
  "headers": {"content-type": "text/plain; charset=UTF-8"},
  "body": {"src": "debug/dispenserHere.txt"}
  },
 "/scripts": {
  "body": {
   "needMasterPage": false,
   "src": "site/scripts",
   "allowNodeRequire": {"node_modules": true, "JS_library": true}
   }
  },
 "/testtemplate": {
  "code": 200,
  "headers": {"content-type": "text/plain; charset=UTF-8"},
  "body": {"src": "site/home.html"}
  }
 , "/help": {
  }
 }